main.c:84:5:main	8	static
main.c:146:6:SystemClock_Config	72	static
main.c:183:13:MX_TIM2_Init	64	static
main.c:242:13:MX_USART1_UART_Init	8	static
main.c:275:13:MX_GPIO_Init	40	static
main.c:317:6:HAL_UART_RxCpltCallback	16	static,ignoring_inline_asm
main.c:361:6:HAL_UART_TxCpltCallback	16	static,ignoring_inline_asm
main.c:372:6:Error_Handler	4	static
